<svg xmlns="http://www.w3.org/2000/svg" width="16" height="17" viewBox="0 0 16 17" fill="none">
<g clip-path="url(#clip0_74_117)">
<path fill-rule="evenodd" clip-rule="evenodd" d="M12.6453 3.64967C12.802 3.58373 12.9735 3.56098 13.1419 3.58381C13.3104 3.60663 13.4696 3.67418 13.6031 3.77943C13.7366 3.88468 13.8394 4.02378 13.9009 4.18226C13.9623 4.34073 13.9802 4.51279 13.9526 4.68051L12.5147 13.4022C12.3753 14.2434 11.4522 14.7259 10.6806 14.3068C10.0353 13.9563 9.07668 13.4161 8.21447 12.8525C7.78336 12.5704 6.46278 11.667 6.62508 11.0241C6.76456 10.4744 8.98348 8.40894 10.2514 7.18093C10.7491 6.69847 10.5221 6.42015 9.93445 6.86394C8.4744 7.96579 6.13185 9.6414 5.35712 10.1131C4.6737 10.529 4.3174 10.6 3.89137 10.529C3.11411 10.3996 2.39328 10.1993 1.80494 9.95521C1.00993 9.62555 1.04861 8.53257 1.80431 8.21431L12.6453 3.64967Z" fill="white"/>
</g>
<defs>
<clipPath id="clip0_74_117">
<rect width="15.2155" height="15.2155" fill="white" transform="translate(0.107178 0.841309)"/>
</clipPath>
</defs>
</svg>